# aq_get_time_series_corrected_data works

    # A tibble: 55,449 x 10
       UniqueId Parameter Label LocationIdentifier NumPoints Unit  StartTime EndTime
       <chr>    <chr>     <chr> <chr>                  <int> <chr> <chr>     <chr>  
     1 27a6b0b~ Stage     Flow~ CM_CCOFF               55449 m     2022-01-~ 2023-0~
     2 27a6b0b~ Stage     Flow~ CM_CCOFF               55449 m     2022-01-~ 2023-0~
     3 27a6b0b~ Stage     Flow~ CM_CCOFF               55449 m     2022-01-~ 2023-0~
     4 27a6b0b~ Stage     Flow~ CM_CCOFF               55449 m     2022-01-~ 2023-0~
     5 27a6b0b~ Stage     Flow~ CM_CCOFF               55449 m     2022-01-~ 2023-0~
     6 27a6b0b~ Stage     Flow~ CM_CCOFF               55449 m     2022-01-~ 2023-0~
     7 27a6b0b~ Stage     Flow~ CM_CCOFF               55449 m     2022-01-~ 2023-0~
     8 27a6b0b~ Stage     Flow~ CM_CCOFF               55449 m     2022-01-~ 2023-0~
     9 27a6b0b~ Stage     Flow~ CM_CCOFF               55449 m     2022-01-~ 2023-0~
    10 27a6b0b~ Stage     Flow~ CM_CCOFF               55449 m     2022-01-~ 2023-0~
    # i 55,439 more rows
    # i 2 more variables: Timestamp <chr>, Value <dbl>
