# aq_get_time_series_unique_id_list() works

    # A tibble: 2,198 x 1
       UniqueId                        
       <chr>                           
     1 27a6b0badd044e0c9b29d589b9e078d9
     2 11e69f80f4d6474e8f9c07b10b2b83d7
     3 5b70e83675d4466cb50f7358098435f0
     4 0bb7d22d5a6b4f618cb3827cb39044fb
     5 1e8d5087f68443a995ee4b7df95f0642
     6 6f92f06ee42843ddb1dfc36c906e62aa
     7 34d35091c6b44026b66f53f7958773bc
     8 e7f55a9ee10d4c588650734ba1c3a493
     9 e8e3ca35914843debccceb626c575bb4
    10 f91f724691f641b5916eac960b5b4782
    # i 2,188 more rows

# aq_get_time_series_unique_id_list() LC_DRY_WQ06_TEMP

    # A tibble: 5 x 1
      UniqueId                        
      <chr>                           
    1 d79dd31e50dd4905a18f4a07e832a1cd
    2 b1f6c307f90a4eec82d33e46504f5d9e
    3 579b076a99b545c19509f9dc3ad17f05
    4 1e05e21c8d174a4fbc7364402b8873d2
    5 2e9376358d0c4bf28c0ee56bcc45b92f

# aq_get_time_series_unique_id_list() water_temperature

    # A tibble: 1,279 x 1
       UniqueId                        
       <chr>                           
     1 1e8d5087f68443a995ee4b7df95f0642
     2 061328dbaa5248f8ad85ad7d760a2ffa
     3 43a442e30ad74598841abc228efa7edb
     4 3c3f39df292e41698244f4ea287a2a18
     5 014883fca10040a48d01f2bdcfb1b4b1
     6 10953a336c144bdaa6144b6cf888821c
     7 babd98071ae44e1b8e2fb676e0bd3882
     8 2568432058084bf0af753be1718d1d5e
     9 60ee36247f374b9399d86d3d23f2e489
    10 f65a47ae665746bb8ff350562becd11e
    # i 1,269 more rows
…
