# aq_get_time_series_data_corrected works

    # A tibble: 88,747 x 9
       UniqueId Parameter Label LocationIdentifier Unit  StartTime EndTime Timestamp
       <chr>    <chr>     <chr> <chr>              <chr> <chr>     <chr>   <chr>    
     1 27a6b0b~ Stage     Flow~ CM_CCOFF           m     2021-10-~ 2024-0~ 2021-10-~
     2 27a6b0b~ Stage     Flow~ CM_CCOFF           m     2021-10-~ 2024-0~ 2021-10-~
     3 27a6b0b~ Stage     Flow~ CM_CCOFF           m     2021-10-~ 2024-0~ 2021-10-~
     4 27a6b0b~ Stage     Flow~ CM_CCOFF           m     2021-10-~ 2024-0~ 2021-10-~
     5 27a6b0b~ Stage     Flow~ CM_CCOFF           m     2021-10-~ 2024-0~ 2021-10-~
     6 27a6b0b~ Stage     Flow~ CM_CCOFF           m     2021-10-~ 2024-0~ 2021-10-~
     7 27a6b0b~ Stage     Flow~ CM_CCOFF           m     2021-10-~ 2024-0~ 2021-10-~
     8 27a6b0b~ Stage     Flow~ CM_CCOFF           m     2021-10-~ 2024-0~ 2021-10-~
     9 27a6b0b~ Stage     Flow~ CM_CCOFF           m     2021-10-~ 2024-0~ 2021-10-~
    10 27a6b0b~ Stage     Flow~ CM_CCOFF           m     2021-10-~ 2024-0~ 2021-10-~
    # i 88,737 more rows
    # i 1 more variable: Value <tibble[,1]>
