# aq_get_unit_list works

    # A tibble: 260 x 7
       UniqueId         Identifier GroupIdentifier Symbol DisplayName BaseMultiplier
       <chr>            <chr>      <chr>           <chr>  <chr>       <chr>         
     1 0d6a94ce337747e~ %          Proportion      %      Percent     0.01          
     2 e021c004ac8345c~ _ATU       _ATU            ATU    ATU         1             
     3 813f91089a444c6~ _BU        _BU             BU     BU          1             
     4 7d07ca45d7c54bb~ _FAU       _FAU            FAU    FAU         1             
     5 bda5d5048d374f6~ _FBRU      _FBRU           FBRU   FBRU        1             
     6 5201235aa46b4d0~ _FBU       _FBU            FBU    FBU         1             
     7 4a9be5aff9fb458~ _FNMU      _FNMU           FNMU   FNMU        1             
     8 f2514b506178465~ _FNRU      _FNRU           FNRU   FNRU        1             
     9 cae2dd9ef17842b~ _FNU       _FNU            FNU    Formazin N~ 1             
    10 7098acb09f444ae~ _FTU       _FTU            FTU    Formazin T~ 1             
    # i 250 more rows
    # i 1 more variable: BaseOffset <chr>
