# aq_get_time_series_raw_data works

    # A tibble: 88,747 x 2
       Timestamp                         Value
       <chr>                             <dbl>
     1 2021-10-05T12:45:00.0000000-07:00    NA
     2 2021-10-05T13:00:00.0000000-07:00    NA
     3 2021-10-05T13:15:00.0000000-07:00    NA
     4 2021-10-05T13:30:00.0000000-07:00    NA
     5 2021-10-05T13:45:00.0000000-07:00    NA
     6 2021-10-05T14:00:00.0000000-07:00    NA
     7 2021-10-05T14:15:00.0000000-07:00    NA
     8 2021-10-05T14:30:00.0000000-07:00    NA
     9 2021-10-05T14:45:00.0000000-07:00    NA
    10 2021-10-05T15:00:00.0000000-07:00    NA
    # i 88,737 more rows

# aq_get_time_series_raw_data query_from

    # A tibble: 2,977 x 2
       Timestamp                         Value
       <chr>                             <dbl>
     1 2022-01-16T17:00:00.0000000-07:00    NA
     2 2022-01-16T17:15:00.0000000-07:00    NA
     3 2022-01-16T17:30:00.0000000-07:00    NA
     4 2022-01-16T17:45:00.0000000-07:00    NA
     5 2022-01-16T18:00:00.0000000-07:00    NA
     6 2022-01-16T18:15:00.0000000-07:00    NA
     7 2022-01-16T18:30:00.0000000-07:00    NA
     8 2022-01-16T18:45:00.0000000-07:00    NA
     9 2022-01-16T19:00:00.0000000-07:00    NA
    10 2022-01-16T19:15:00.0000000-07:00    NA
    # i 2,967 more rows
…
