# aq_get_parameter_list works

    # A tibble: 116 x 6
       Identifier   UnitGroupIdentifier UnitIdentifier DisplayName InterpolationType
       <chr>        <chr>               <chr>          <chr>       <chr>            
     1 Water Tempe~ Temperature         degC           Water Temp~ 1                
     2 Signal AV    Proportion          %              Signal Are~ 1                
     3 Ice Thickne~ Length              cm             Ice thickn~ 7                
     4 Specific Co~ Conductivity        uS/cm          Specific C~ 1                
     5 Tide Height  Length              m              Height of ~ 1                
     6 River X Area Area                m^2            River Cros~ 7                
     7 Snow Temp    Temperature         degC           Snow, Aver~ 7                
     8 Discharge    Volumetric Flow     m^3/s          Discharge   1                
     9 Precip Incr~ Length              mm             Precipitat~ 5                
    10 Precip Cumul Length              mm             Precipitat~ 1                
    # i 106 more rows
    # i 1 more variable: RoundingSpec <chr>
